----------------------------434912202783399718597875
Content-Disposition: form-data; name="name"

Brian Kim
----------------------------434912202783399718597875
Content-Disposition: form-data; name="email"

kim@gmail.com
----------------------------434912202783399718597875
Content-Disposition: form-data; name="class"

Form 3
----------------------------434912202783399718597875
Content-Disposition: form-data; name="admission_no"

E54-5122-2015
----------------------------434912202783399718597875--
